%YAML 1.1
%TAG !u! tag:unity3d.com,2011:
--- !u!114 &-8581608458598895801
MonoBehaviour:
  m_ObjectHideFlags: 11
  m_CorrespondingSourceObject: {fileID: 0}
  m_PrefabInstance: {fileID: 0}
  m_PrefabAsset: {fileID: 0}
  m_GameObject: {fileID: 0}
  m_Enabled: 1
  m_EditorHideFlags: 0
  m_Script: {fileID: 11500000, guid: d0353a89b1f911e48b9e16bdc9f2e058, type: 3}
  m_Name: 
  m_EditorClassIdentifier: 
  version: 5
--- !u!21 &2100000
Material:
  serializedVersion: 8
  m_ObjectHideFlags: 0
  m_CorrespondingSourceObject: {fileID: 0}
  m_PrefabInstance: {fileID: 0}
  m_PrefabAsset: {fileID: 0}
  m_Name: Shield Dome Effect Red
  m_Shader: {fileID: -6465566751694194690, guid: 48f2fce4d4775be46aea6f21c97c826f, type: 3}
  m_ValidKeywords: []
  m_InvalidKeywords: []
  m_LightmapFlags: 2
  m_EnableInstancingVariants: 0
  m_DoubleSidedGI: 0
  m_CustomRenderQueue: -1
  stringTagMap: {}
  disabledShaderPasses: []
  m_SavedProperties:
    serializedVersion: 3
    m_TexEnvs:
    - _EmmisionTex:
        m_Texture: {fileID: 0}
        m_Scale: {x: 1, y: 1}
        m_Offset: {x: 0, y: 0}
    - _Emmision_Texture:
        m_Texture: {fileID: 2800000, guid: eb1e03d3901c3ce4b994091eabdc8dbc, type: 3}
        m_Scale: {x: 1, y: 1}
        m_Offset: {x: 0, y: 0}
    - _Gradient:
        m_Texture: {fileID: 2800000, guid: eb1e03d3901c3ce4b994091eabdc8dbc, type: 3}
        m_Scale: {x: 1, y: 1}
        m_Offset: {x: 0, y: 0}
    - _MainTex:
        m_Texture: {fileID: 2800000, guid: eb1e03d3901c3ce4b994091eabdc8dbc, type: 3}
        m_Scale: {x: 1, y: 1}
        m_Offset: {x: 0, y: 0}
    - unity_Lightmaps:
        m_Texture: {fileID: 0}
        m_Scale: {x: 1, y: 1}
        m_Offset: {x: 0, y: 0}
    - unity_LightmapsInd:
        m_Texture: {fileID: 0}
        m_Scale: {x: 1, y: 1}
        m_Offset: {x: 0, y: 0}
    - unity_ShadowMasks:
        m_Texture: {fileID: 0}
        m_Scale: {x: 1, y: 1}
        m_Offset: {x: 0, y: 0}
    m_Ints: []
    m_Floats:
    - _Gradient_Intensity: 2
    - _QueueControl: 0
    - _QueueOffset: 0
    m_Colors:
    - _Color: {r: 0, g: 0.65882355, b: 1, a: 1}
    - _Emmision_Color: {r: 1.1351843, g: 0.040450193, b: 0.017830087, a: 1}
    - _Emmision_Tiling: {r: 6, g: 4, b: 0, a: 0}
    - _Gradient_Color: {r: 1.6506231, g: 30.853954, b: 13.585897, a: 1}
    - _Gradient_Speed: {r: -0.1, g: 0.1, b: 0, a: 0}
    - _Gradient_Tiling: {r: 10, g: 10, b: 0, a: 0}
    - _Offset: {r: 0, g: 0, b: 0, a: 0}
    - _Texture_Color: {r: 1, g: 0, b: 0.037307262, a: 1}
    - _Texture_Speed: {r: 0.1, g: 0.1, b: 0, a: 0}
    - _Texture_Tiling: {r: 6, g: 4, b: 0, a: 0}
    - _Tiling: {r: 5, g: 5, b: 0, a: 0}
  m_BuildTextureStacks: []
